<?xml version="1.0" encoding="UTF-8" standalone="no"?>
<!-- Created with Inkscape (http://www.inkscape.org/) -->

<svg
   width="56.345085mm"
   height="25.179354mm"
   viewBox="0 0 56.345085 25.179354"
   version="1.1"
   id="svg372"
   sodipodi:docname="Cargill.svg"
   inkscape:version="1.2.2 (1:1.2.2+202212051552+b0a8486541)"
   xmlns:inkscape="http://www.inkscape.org/namespaces/inkscape"
   xmlns:sodipodi="http://sodipodi.sourceforge.net/DTD/sodipodi-0.dtd"
   xmlns="http://www.w3.org/2000/svg"
   xmlns:svg="http://www.w3.org/2000/svg">
  <sodipodi:namedview
     id="namedview15"
     pagecolor="#505050"
     bordercolor="#eeeeee"
     borderopacity="1"
     inkscape:showpageshadow="0"
     inkscape:pageopacity="0"
     inkscape:pagecheckerboard="0"
     inkscape:deskcolor="#505050"
     inkscape:document-units="mm"
     showgrid="false"
     inkscape:zoom="2.4798757"
     inkscape:cx="52.421983"
     inkscape:cy="47.583031"
     inkscape:window-width="1080"
     inkscape:window-height="1894"
     inkscape:window-x="1920"
     inkscape:window-y="0"
     inkscape:window-maximized="1"
     inkscape:current-layer="svg372" />
  <defs
     id="defs369" />
  <path
     id="path6"
     d="m 16.141941,10.23321 c 1.658908,0 2.667936,0.29171 3.175623,0.91477 0.276697,0.33899 0.416338,0.78981 0.419512,1.36081 0.0016,0.31727 -0.03864,0.67128 -0.119814,1.06524 0,0 -1.137119,5.49259 -1.137119,5.49259 -0.157538,0.75939 -0.25242,1.34079 -0.249868,1.82273 9.44e-4,0.15279 0.01502,0.29413 0.03707,0.42795 -0.456287,0 -2.755816,0 -3.111103,0 -9.84e-4,-0.0337 -0.0058,-0.0664 -0.0058,-0.1011 -0.0013,-0.22772 0.01629,-0.4682 0.03609,-0.71718 0,0 0.03262,-0.45053 0.03262,-0.45053 0,0 -0.172228,0 -0.172228,0 0,0 -0.06805,0.10732 -0.06805,0.10732 -0.558204,0.89745 -1.826033,1.45268 -2.912373,1.45268 -0.900371,0 -1.545475,-0.23033 -1.917087,-0.68708 -0.410253,-0.50288 -0.508015,-1.29073 -0.291388,-2.34033 0.424322,-2.05044 1.356658,-2.91813 3.69486,-3.44293 0.0013,0 1.552509,-0.35368 1.552509,-0.35368 0.921147,-0.20351 1.364968,-0.60954 1.529508,-1.40374 0.08978,-0.43581 0.04123,-0.77258 -0.145072,-1.00232 -0.17285,-0.2112 -0.450169,-0.31822 -0.82368,-0.31822 -0.8314,0 -1.273913,0.42943 -1.547732,1.4982 -0.287559,0 -2.321254,0 -2.776265,0 0.746399,-2.88329 3.309211,-3.32518 4.799752,-3.32518 z m -0.03452,5.65451 c 0,0 -0.06262,0.0573 -0.183091,0.1047 -0.196505,0.0756 -0.632638,0.14691 -0.902301,0.21463 -0.20897,0.052 -0.44477,0.11223 -0.699415,0.21921 -0.677986,0.28727 -1.027547,0.75743 -1.207431,1.62184 -0.104796,0.50582 -0.04345,0.91938 0.179557,1.19323 0.16647,0.20515 0.412805,0.31279 0.709951,0.31279 1.212568,0 1.592785,-1.15986 1.773324,-2.03376 0,0 0.338044,-1.63264 0.338044,-1.63264 0,0 -0.0086,0 -0.0086,0 0,0 -0.329407,1.63264 -0.329407,1.63264 0,0 0.329407,-1.63264 0.329407,-1.63264 z"
     style="fill:#161413;fill-rule:evenodd;stroke:none;stroke-width:0.327181;stroke-linecap:butt;stroke-linejoin:miter;stroke-dasharray:none" />
  <path
     id="path10"
     d="m 27.259076,20.34786 c -0.65662,-0.80585 -0.785366,-2.07335 -0.332285,-4.33123 0.988546,-4.91564 2.857046,-5.78342 4.482812,-5.78342 0.772802,0 1.936913,0.28628 2.073675,1.64261 0,0 0.02159,0.21087 0.02159,0.21087 0,0 0.225756,0 0.225756,0 0,0 0.264036,-1.27581 0.321947,-1.56049 0.306241,0 2.569683,0 3.022175,0 -0.109933,0.52941 -2.244465,10.7911 -2.244465,10.7911 -0.532979,2.57786 -2.188189,3.86205 -5.224761,3.86205 -2.81327,0 -3.230558,-1.65881 -3.293802,-2.17248 -0.02398,-0.19501 0.04152,-0.77052 0.04152,-0.77052 0.32368,0 2.529538,0 2.940805,0 0,0.002 0,0.002 0,0.002 0.0016,0.26207 0.02127,0.6488 0.109933,0.75742 0.121711,0.15018 0.222811,0.32653 0.689371,0.32653 0.619355,0 1.212208,-0.17864 1.501436,-1.57669 0,0 0.500588,-2.42147 0.500588,-2.42147 0,0 -0.241461,0 -0.241461,0 0,0 -0.06674,0.11386 -0.06674,0.11386 -0.602341,1.04273 -1.723919,1.56982 -2.906681,1.56982 -0.728371,0 -1.259419,-0.21463 -1.621413,-0.66025 z m 3.000811,-4.57007 c -0.330781,1.59992 -0.316385,2.21502 0.0072,2.61222 0.160647,0.19827 0.401124,0.29315 0.733213,0.29315 0.918726,0 1.36762,-0.55784 1.83418,-2.80951 0.333398,-1.61267 0.368079,-2.63701 0.04908,-3.03002 -0.15672,-0.19075 -0.386074,-0.28567 -0.702458,-0.28567 -0.949153,0 -1.455958,0.96813 -1.921209,3.21983 z"
     style="fill:#161413;fill-rule:evenodd;stroke:none;stroke-width:0.327181;stroke-linecap:butt;stroke-linejoin:miter;stroke-dasharray:none" />
  <path
     id="path14"
     d="m 41.921288,10.5262 c -0.107643,0.52081 -2.160051,10.44625 -2.232358,10.7911 -0.309514,0 -2.81049,0 -3.271815,0 0.108297,-0.5212 2.162996,-10.44635 2.234649,-10.7911 0.309187,0 2.810489,0 3.269524,0 z"
     style="fill:#161413;fill-rule:evenodd;stroke:none;stroke-width:0.327181;stroke-linecap:butt;stroke-linejoin:miter;stroke-dasharray:none" />
  <path
     id="path18"
     d="m 47.929976,6.92626 c -0.109279,0.52941 -2.904391,14.0403 -2.977679,14.39104 -0.310822,0 -2.810161,0 -3.272142,0 0.109279,-0.53102 2.905372,-14.04184 2.97866,-14.39104 0.310822,0 2.81049,0 3.271161,0 z"
     style="fill:#161413;fill-rule:evenodd;stroke:none;stroke-width:0.327181;stroke-linecap:butt;stroke-linejoin:miter;stroke-dasharray:none" />
  <path
     id="path22"
     d="m 53.176004,6.92626 c -0.110915,0.52941 -2.906353,14.0403 -2.980296,14.39104 -0.308859,0 -2.811469,0 -3.270505,0 0.110587,-0.53102 2.906352,-14.04184 2.978659,-14.39104 0.310823,0 2.812453,0 3.272142,0 z"
     style="fill:#161413;fill-rule:evenodd;stroke:none;stroke-width:0.327181;stroke-linecap:butt;stroke-linejoin:miter;stroke-dasharray:none" />
  <path
     id="path26"
     d="m 27.724917,10.23321 c -1.072272,0 -2.348083,0.75019 -2.971135,1.95638 0,0 -0.06455,0.12459 -0.06455,0.12459 0,0 -0.239627,0 -0.239627,0 0,0 0.288181,-1.39114 0.369355,-1.78798 -0.06102,0 -0.158814,0 -0.280231,0 0,0 0,-10e-4 0,-10e-4 -0.355287,0 -2.655143,0 -3.112052,0 0.02205,0.13483 0.03612,0.27575 0.03707,0.42975 0.0019,0.34603 -0.0476,0.74604 -0.133883,1.22628 -0.606431,2.93037 -1.810033,8.74045 -1.891207,9.13634 0.460442,0 2.961581,0 3.273418,0 0.20897,-1.0136 1.230137,-5.9547 1.230137,-5.9547 0.308008,-1.48639 1.179652,-2.17837 2.740472,-2.17837 0.269335,0 0.506084,0.015 0.73871,0.0492 0.07283,-0.35051 0.530067,-2.55833 0.620794,-3.00022 -0.158454,0 -0.317268,0 -0.317268,0 z"
     style="fill:#161413;fill-rule:evenodd;stroke:none;stroke-width:0.327181;stroke-linecap:butt;stroke-linejoin:miter;stroke-dasharray:none" />
  <path
     id="path30"
     d="m 0.643618,20.75553 c -0.8173,-1.00314 -0.853421,-2.84746 -0.124297,-6.36761 1.164013,-5.62768 2.847526,-7.52687 6.670183,-7.52687 1.52725,0 2.599554,0.36425 3.185209,1.08284 0.378942,0.46427 0.57067,1.09818 0.57512,1.8931 0.0026,0.43296 -0.05048,0.91477 -0.159436,1.44134 0,0 -0.09969,0.48056 -0.156229,0.75245 -0.310266,0 -3.22133,0 -3.22133,0 0,0 0.238679,-1.53589 0.236749,-1.87459 C 7.647387,9.77502 7.632667,9.56861 7.486945,9.37626 7.335819,9.1772 7.111209,9.01776 6.759096,9.01776 c -1.42373,0 -1.891501,1.35604 -2.70242,5.27463 -0.629465,3.0418 -0.854696,4.43789 -0.368406,5.03434 0.184367,0.2251 0.462013,0.3347 0.851489,0.3347 1.121185,0 1.563076,-0.96126 2.126385,-3.63531 0.308957,0 2.785165,0 3.244953,0 -0.0639,0.30951 -0.170298,0.82123 -0.170298,0.82123 -0.682141,3.29766 -2.615227,4.97119 -5.745797,4.97119 -1.695356,0 -2.760266,-0.33896 -3.351384,-1.06301 z"
     style="fill:#161413;fill-rule:evenodd;stroke:none;stroke-width:0.327181;stroke-linecap:butt;stroke-linejoin:miter;stroke-dasharray:none" />
  <path
     id="path34"
     d="m 53.87061,6.91857 c 0,0 0.981871,0 0.981871,0 0,0 -0.03272,0.15626 -0.03272,0.15626 0,0 -0.404396,0 -0.404396,0 0,0 -0.290538,1.40681 -0.290538,1.40681 0,0 -0.173405,0 -0.173405,0 0,0 0.290864,-1.40681 0.290864,-1.40681 0,0 -0.403415,0 -0.403415,0 0,0 0.03174,-0.15626 0.03174,-0.15626 z"
     style="fill:#161413;fill-rule:evenodd;stroke:none;stroke-width:0.327181;stroke-linecap:butt;stroke-linejoin:miter;stroke-dasharray:none" />
  <path
     id="path38"
     d="m 56.040479,6.91857 c 0,0 0.304606,0 0.304606,0 0,0 -0.323911,1.56307 -0.323911,1.56307 0,0 -0.172752,0 -0.172752,0 0,0 0.266653,-1.28798 0.266653,-1.28798 0.01341,-0.0668 0.03076,-0.1313 0.04057,-0.19778 0,0 -0.0039,0 -0.0039,0 -0.03763,0.0917 -0.06413,0.14988 -0.09161,0.21025 0,0 -0.591217,1.27551 -0.591217,1.27551 0,0 -0.206123,0 -0.206123,0 0,0 -0.05988,-1.29436 -0.05988,-1.29436 -0.0033,-0.0543 -0.0046,-0.1064 -0.0056,-0.1914 0,0 -0.0043,0 -0.0043,0 -0.01374,0.0665 -0.02388,0.13516 -0.03795,0.20226 0,0 -0.265672,1.2835 -0.265672,1.2835 0,0 -0.172752,0 -0.172752,0 0,0 0.323256,-1.56307 0.323256,-1.56307 0,0 0.306568,0 0.306568,0 0,0 0.05366,1.2196 0.05366,1.2196 0.0033,0.0664 -0.0016,0.13097 -0.01472,0.23132 0,0 0.0046,0 0.0046,0 0.02716,-0.0793 0.05333,-0.15656 0.08769,-0.23358 0,0 0.562752,-1.21734 0.562752,-1.21734 z"
     style="fill:#161413;fill-rule:evenodd;stroke:none;stroke-width:0.327181;stroke-linecap:butt;stroke-linejoin:miter;stroke-dasharray:none" />
  <path
     id="path42"
     d="M 42.201356,9.25294 C 42.458521,3.32212 35.306988,-1.13059 28.632322,0.25417 21.961223,1.63799 18.736686,7.44641 17.893834,9.2408 c 0,0 1.091117,0 1.091117,0 1.460506,-2.45641 2.939202,-4.36329 5.459514,-5.07357 1.601095,-0.45144 2.85901,-0.34792 5.955455,1.37966 1.426184,0.79594 4.65383,3.18874 8.121299,3.66676 1.506344,0.20799 3.680137,0.0393 3.680137,0.0393 z"
     style="fill:#00812e;fill-rule:evenodd;stroke:none;stroke-width:0.327181;stroke-linecap:butt;stroke-linejoin:miter;stroke-dasharray:none" />
</svg>
