<?xml version="1.0" encoding="UTF-8" standalone="no"?>
<svg
   viewBox="0 0 51.83 24.67"
   width="2500"
   height="1190"
   version="1.1"
   id="svg26"
   sodipodi:docname="danone.svg"
   inkscape:version="1.2.2 (1:1.2.2+202212051552+b0a8486541)"
   xmlns:inkscape="http://www.inkscape.org/namespaces/inkscape"
   xmlns:sodipodi="http://sodipodi.sourceforge.net/DTD/sodipodi-0.dtd"
   xmlns="http://www.w3.org/2000/svg"
   xmlns:svg="http://www.w3.org/2000/svg">
  <sodipodi:namedview
     id="namedview28"
     pagecolor="#505050"
     bordercolor="#eeeeee"
     borderopacity="1"
     inkscape:showpageshadow="0"
     inkscape:pageopacity="0"
     inkscape:pagecheckerboard="0"
     inkscape:deskcolor="#505050"
     showgrid="false"
     inkscape:zoom="0.39663866"
     inkscape:cx="1048.8136"
     inkscape:cy="-36.557203"
     inkscape:window-width="1920"
     inkscape:window-height="1029"
     inkscape:window-x="0"
     inkscape:window-y="788"
     inkscape:window-maximized="1"
     inkscape:current-layer="svg26" />
  <defs
     id="defs10">
    <radialGradient
       id="b"
       cx="26.45"
       cy="16.61"
       fy="23.591"
       r="13.91"
       gradientTransform="matrix(1.06,0,0,1.18,-2.06,-0.23)"
       gradientUnits="userSpaceOnUse">
      <stop
         offset=".23"
         stop-color="#fff"
         id="stop5" />
      <stop
         offset="1"
         stop-color="#1b5ca4"
         id="stop7" />
    </radialGradient>
    <clipPath
       clipPathUnits="userSpaceOnUse"
       id="clipPath377">
      <g
         id="g381"
         style="stroke-width:1">
        <path
           d="m 6.35,14.64 a 1.58,1.58 0 0 0 0.28,0.15 c 7.46,2.86 11.15,4.91 18.75,6.66 8.47,-0.09 13,-3.4 20.71,-6.76 a 0.67,0.67 0 0 0 0,-0.1 L 49.58,7.18 V 7.11 a 0.49,0.49 0 0 0 0,-0.28 2.94,2.94 0 0 0 -1,-0.58 C 40.66,3.26 32,2.69 23.71,2.69 A 64.34,64.34 0 0 0 2.36,6.51 0.24,0.24 0 0 0 2.21,6.74 Z"
           fill="none"
           clip-rule="evenodd"
           id="path379"
           style="stroke-width:0.020732" />
      </g>
    </clipPath>
  </defs>
  <title
     id="title12">danone</title>
  <path
     d="M0 6.11v11.21a1.72 1.72 0 0 0 1.21 1.56 60.17 60.17 0 0 0 24.15 5.78A60.89 60.89 0 0 0 51 18.56a1.69 1.69 0 0 0 .79-1.5V6.66c.12-1.47-.83-2.09-2.08-2.6C41.43.65 32.36 0 23.64 0A63.32 63.32 0 0 0 1.15 4.33 1.88 1.88 0 0 0 0 6.11"
     fill="#fff"
     fill-rule="evenodd"
     id="path14" />
  <path
     d="M.76 6.73v10.09a1.57 1.57 0 0 0 1.18 1.41 62.18 62.18 0 0 0 23.44 5.2 62.94 62.94 0 0 0 24.91-5.5 1.49 1.49 0 0 0 .77-1.35V7.23c.11-1.32-.8-1.88-2-2.34C41 1.82 32.18 1.24 23.71 1.23a65.73 65.73 0 0 0-21.83 3.9 1.69 1.69 0 0 0-1.12 1.6"
     fill="#005ca2"
     fill-rule="evenodd"
     id="path16" />
  <path
     fill="url(#b)"
     d="m 0.76,1.23 h 50.32 v 22.2 H 0.76 Z"
     id="path18"
     style="fill:url(#b)"
     clip-path="url(#clipPath377)" />
  <path
     d="M40.79 16.82c.6-.41.09-1.15-.58-.82-9.37 4.58-18.72 4.62-28.24.07-1.51-.72-1.36.44-.73.85 10.71 7 20.44 6.24 29.55-.1"
     fill="#d52330"
     fill-rule="evenodd"
     id="path22" />
  <path
     id="path490"
     d="M 6.9707301 6.6628544 A 6.38 6.38 0 0 0 6.3399833 6.6899841 A 16.58 16.58 0 0 0 4.5899919 6.8500093 C 4.9399916 7.7900083 4.7400155 11.569992 4.7400155 12.919991 C 4.7400155 14.03999 4.680006 14.640018 4.680006 14.640018 A 9.91 9.91 0 0 0 6.6799962 14.820006 A 5.45 5.45 0 0 0 9.9999911 13.749999 A 3.92 3.92 0 0 0 11.440015 10.520019 A 3.43 3.43 0 0 0 9.8100018 7.3500068 A 6.38 6.38 0 0 0 6.9707301 6.6628544 z M 7.1644042 8.1791248 A 3 3 0 0 1 9.1599807 8.9200104 A 2.45 2.45 0 0 1 9.8400065 10.84999 A 2.38 2.38 0 0 1 8.5200017 13.000003 A 3.81 3.81 0 0 1 6.4199958 13.320013 L 6.4199958 8.1800157 L 6.4299974 8.1800157 L 7.1099827 8.1800157 A 3 3 0 0 1 7.1644042 8.1791248 z "
     style="fill:#ffffff;fill-opacity:1" />
  <path
     id="path488"
     d="M 44.759173 6.6867043 A 3 3 0 0 0 44.470019 6.6999857 A 3.51 3.51 0 0 0 41.820007 7.8199996 A 4.37 4.37 0 0 0 40.820012 10.950005 A 4.06 4.06 0 0 0 41.999995 13.999998 A 3.17 3.17 0 0 0 44.329997 14.85001 A 4.1 4.1 0 0 0 47.720002 13.100019 L 47.710001 13.070014 L 46.099991 12.679993 A 2.08 2.08 0 0 1 44.539989 13.310011 A 2.05 2.05 0 0 1 42.449985 11.309981 L 47.77001 11.309981 A 5.76 5.76 0 0 0 47.849982 9.9900164 A 4.09 4.09 0 0 0 47.000011 7.6999808 A 3 3 0 0 0 44.759173 6.6867043 z M 44.499983 8.1100047 A 1.8 1.8 0 0 1 46.280019 10.000018 L 42.499993 10.000018 A 2.1 2.1 0 0 1 44.499983 8.1100047 z "
     style="fill:#ffffff;fill-opacity:1" />
  <path
     id="path482"
     d="M 29.579988 6.669981 A 4 4 0 0 0 25.729991 10.750014 A 3.86 3.86 0 1 0 33.439987 10.750014 A 4 4 0 0 0 29.579988 6.669981 z M 29.579988 8.1800157 A 2.44 2.44 0 0 1 31.879985 10.750014 A 2.31 2.31 0 1 1 27.279992 10.750014 A 2.44 2.44 0 0 1 29.579988 8.1800157 z "
     style="fill:#ffffff;fill-opacity:1" />
  <path
     d="m 33.78,14.54 h 1.67 v -5.2 a 11.7,11.7 0 0 1 3.41,5.21 H 40.4 V 6.9 h -1.68 v 3.69 A 16.38,16.38 0 0 0 35.22,6.9 h -1.4 v 7.64 z"
     id="path480"
     style="fill:#ffffff;fill-opacity:1" />
  <path
     d="m 18.78,14.54 h 1.67 v -5.2 a 11.7,11.7 0 0 1 3.41,5.21 h 1.49 V 6.9 h -1.67 v 3.69 A 16.38,16.38 0 0 0 20.18,6.9 h -1.4 z"
     id="path478"
     style="fill:#ffffff;fill-opacity:1" />
  <path
     id="path476"
     d="M 14.000012 6.9000171 C 12.460013 8.5400155 11.510003 11.120005 11.110003 14.540002 L 12.789984 14.540002 A 16.69 16.69 0 0 1 13.000017 12.859981 L 16.520003 12.859981 C 16.613336 13.393314 16.683329 13.953336 16.729995 14.540002 L 18.479986 14.540002 C 18.159987 11.180005 17.189981 8.6400154 15.619983 6.9000171 L 14.000012 6.9000171 z M 14.780013 8.3299987 A 11.1 11.1 0 0 1 16.189991 11.450003 L 13.369994 11.450003 A 11.35 11.35 0 0 1 14.780013 8.3299987 z "
     style="fill:#ffffff;fill-opacity:1" />
</svg>
