<?xml version="1.0" encoding="UTF-8" standalone="no"?>
<!-- Created with Inkscape (http://www.inkscape.org/) -->

<svg
   width="40.066288mm"
   height="76.907494mm"
   viewBox="0 0 40.066288 76.907494"
   version="1.1"
   id="svg1239"
   xml:space="preserve"
   inkscape:version="1.2.2 (1:1.2.2+202212051552+b0a8486541)"
   sodipodi:docname="Iraq Petroleum Company.svg"
   xmlns:inkscape="http://www.inkscape.org/namespaces/inkscape"
   xmlns:sodipodi="http://sodipodi.sourceforge.net/DTD/sodipodi-0.dtd"
   xmlns="http://www.w3.org/2000/svg"
   xmlns:svg="http://www.w3.org/2000/svg"><sodipodi:namedview
     id="namedview1241"
     pagecolor="#505050"
     bordercolor="#eeeeee"
     borderopacity="1"
     inkscape:showpageshadow="0"
     inkscape:pageopacity="0"
     inkscape:pagecheckerboard="0"
     inkscape:deskcolor="#505050"
     inkscape:document-units="mm"
     showgrid="false"
     inkscape:zoom="1.6819304"
     inkscape:cx="68.968371"
     inkscape:cy="246.14574"
     inkscape:window-width="1080"
     inkscape:window-height="1894"
     inkscape:window-x="1920"
     inkscape:window-y="0"
     inkscape:window-maximized="1"
     inkscape:current-layer="svg1239" /><defs
     id="defs1236" /><path
     id="ellipse2222"
     style="font-variation-settings:'wdth' 55, 'wght' 468, 'YOPQ' 121;fill:#ffffff;stroke-width:0.299996;stroke-linecap:round;stroke-linejoin:round;paint-order:fill markers stroke;stop-color:#000000"
     d="M 39.20979,58.20353 A 19.176643,17.894234 0 0 1 20.03314,76.09776 19.176643,17.894234 0 0 1 0.8565,58.20353 19.176643,17.894234 0 0 1 20.03314,40.30929 19.176643,17.894234 0 0 1 39.20979,58.20353 Z" /><path
     style="color:#000000;fill:#000000;stroke-linecap:round;stroke-linejoin:round;-inkscape-stroke:none;paint-order:fill markers stroke"
     d="m 20.03363,39.49955 c -11.05679,0 -20.0332,8.36919 -20.0332,18.70312 0,10.33393 8.97641,18.70508 20.0332,18.70508 11.05679,0 20.0332,-8.37114 20.0332,-18.70508 0,-10.33394 -8.9764,-18.70313 -20.0332,-18.70312 z m 0,0.30078 c 10.9055,0 19.73242,8.24215 19.73242,18.40234 0,10.16019 -8.82692,18.4043 -19.73242,18.4043 -10.9055,0 -19.73437,-8.24411 -19.73438,-18.4043 0,-10.16019 8.82888,-18.40234 19.73438,-18.40234 z"
     id="ellipse2224" /><path
     id="path2247"
     style="font-variation-settings:'wdth' 55, 'wght' 468, 'YOPQ' 121;fill:#f9c000;fill-opacity:1;stroke:none;stroke-width:0.299995;stroke-linecap:round;stroke-linejoin:round;stroke-dasharray:none;paint-order:fill markers stroke;stop-color:#000000"
     d="m 12.68157,57.20687 c 0,0 -7.42157,3.18913 -11.5374,3.64405 0.42306,6.11795 7.06427,15.43911 19.20178,15.30585 C 32.48346,76.02351 38.1461,66.48879 39.13274,60.28347 34.62687,59.55926 27.2874,57.20687 27.2874,57.20687 Z"
     sodipodi:nodetypes="cczccc" /><path
     id="path2228"
     style="font-variation-settings:'wdth' 55, 'wght' 468, 'YOPQ' 121;fill:#000000;stroke:none;stroke-width:0.299995;stroke-linecap:round;stroke-linejoin:round;stroke-dasharray:none;paint-order:fill markers stroke;stop-color:#000000"
     d="m 7.06848,66.91842 c -2.8078,0.23606 -3.70882,0 -3.70882,0 l 1.90221,2.55489 1.72548,1.69447 c 0,0 3.48822,-0.98996 5.02243,-1.34773 1.30072,-0.30335 4.2377,-0.74277 7.9747,-0.86971 3.73676,0.12697 6.67353,0.56638 7.97419,0.86971 1.53421,0.35777 5.02295,1.34773 5.02295,1.34773 0.83723,-0.32255 1.40248,-0.92026 1.84113,-1.61104 l 1.93472,-2.63832 c 0,0 -1.08155,0.23684 -3.85749,0 -2.77594,-0.23684 -3.98489,-2.20349 -12.81933,-2.20349 -8.83444,0 -10.20437,1.96743 -13.01217,2.20349 z"
     sodipodi:nodetypes="zcccscsccczzz" /><path
     id="path2230"
     style="font-variation-settings:'wdth' 55, 'wght' 468, 'YOPQ' 121;fill:#000000;stroke:none;stroke-width:0.299995;stroke-linecap:round;stroke-linejoin:round;stroke-dasharray:none;paint-order:fill markers stroke;stop-color:#000000"
     d="m 11.12714,73.90043 c 5.48088,2.73616 12.23857,3.10844 17.94581,0.0844 0,0 -5.03435,-1.18925 -9.08847,-1.18925 -4.05412,0 -8.85734,1.10485 -8.85734,1.10485 z"
     sodipodi:nodetypes="cczc" /><path
     style="color:#000000;fill:#f9c000;stroke-linecap:round;stroke-linejoin:round;-inkscape-stroke:none;paint-order:fill markers stroke"
     d="m 20.03363,39.82572 c -10.85024,0 -19.67188,8.21961 -19.67188,18.37695 0,10.15734 8.82164,18.37695 19.67188,18.37695 10.85025,10e-6 19.67187,-8.21961 19.67187,-18.37695 10e-6,-10.15734 -8.82162,-18.37695 -19.67187,-18.37695 z m 0,0.60156 c 10.54766,0 19.07227,7.96555 19.07227,17.77539 0,9.80985 -8.52461,17.77735 -19.07227,17.77735 -10.54766,-1e-5 -19.07227,-7.96751 -19.07227,-17.77735 0,-9.80984 8.52461,-17.77539 19.07227,-17.77539 z"
     id="ellipse3010" /><path
     style="color:#000000;fill:#000000;stroke-linecap:round;stroke-linejoin:round;-inkscape-stroke:none;paint-order:fill markers stroke"
     d="m 20.03363,40.1597 c -10.6666,0 -19.32617,8.07339 -19.32617,18.04297 0,9.96958 8.65957,18.04492 19.32617,18.04492 10.6666,0 19.32617,-8.07534 19.32617,-18.04492 0,-9.96958 -8.65957,-18.04297 -19.32617,-18.04297 z m 0,0.29883 c 10.51531,0 19.02539,7.94831 19.02539,17.74414 0,9.79583 -8.51008,17.74414 -19.02539,17.74414 -10.51531,0 -19.02734,-7.94831 -19.02734,-17.74414 0,-9.79583 8.51203,-17.74414 19.02734,-17.74414 z"
     id="path5891" /><path
     id="path3008"
     style="font-variation-settings:'wdth' 55, 'wght' 468, 'YOPQ' 121;fill:#f9c000;fill-opacity:1;stroke:#000000;stroke-width:0.299995;stroke-linecap:round;stroke-linejoin:round;stroke-dasharray:none;paint-order:fill markers stroke;stop-color:#000000"
     d="M 19.98448,0.14989 12.68157,57.73604 H 27.2874 Z"
     sodipodi:nodetypes="cccc" /><path
     id="path2226"
     style="font-variation-settings:'wdth' 55, 'wght' 468, 'YOPQ' 121;fill:#000000;stroke:none;stroke-width:0.299995;stroke-linecap:round;stroke-linejoin:round;stroke-dasharray:none;paint-order:fill markers stroke;stop-color:#000000"
     d="M 12.68157,57.20687 5.04689,59.35609 H 0.9102 c 0,0 0.078,0.81094 0.35346,2.41278 0.27546,1.60183 0.52814,1.85053 0.52814,1.85053 h 3.21065 c 0,0 5.81564,-1.40707 8.50129,-1.85053 2.04732,-0.33806 4.67757,-0.52355 6.48074,-0.6196 1.80316,0.0961 4.4331,0.28157 6.48023,0.6196 2.68566,0.44346 8.50129,1.85053 8.50129,1.85053 h 3.21117 c 0,0 0.25216,-0.2487 0.52762,-1.85053 0.27546,-1.60184 0.35347,-2.41278 0.35347,-2.41278 h -4.1367 L 27.2874,57.20687 c 0,0 -2.94417,-0.74015 -7.16309,-0.74015 -4.21892,0 -7.44274,0.74015 -7.44274,0.74015 z"
     sodipodi:nodetypes="cccsccscsccsccczc" /></svg>
