<?xml version="1.0" encoding="UTF-8" standalone="no"?>
<!-- Created with Inkscape (http://www.inkscape.org/) -->

<svg
   version="1.1"
   id="svg2"
   width="147.40399"
   height="183.07199"
   viewBox="0 0 147.40399 183.07199"
   sodipodi:docname="Sonatrach.svg"
   inkscape:version="1.2.2 (1:1.2.2+202212051552+b0a8486541)"
   xmlns:inkscape="http://www.inkscape.org/namespaces/inkscape"
   xmlns:sodipodi="http://sodipodi.sourceforge.net/DTD/sodipodi-0.dtd"
   xmlns="http://www.w3.org/2000/svg"
   xmlns:svg="http://www.w3.org/2000/svg">
  <path
     d="m 123.3076,157.8192 h 3.66933 v 8.58533 h 0.0613 c 0.444,-0.68 1.06666,-1.27333 1.80533,-1.65733 0.70933,-0.41467 1.568,-0.65067 2.488,-0.65067 2.45733,0 5.032,1.628 5.032,6.248 v 8.49734 h -3.64 v -8.08267 c 0,-2.10133 -0.77333,-3.67467 -2.78267,-3.67467 -1.42266,0 -2.428,0.94934 -2.816,2.04667 -0.11466,0.29467 -0.148,0.67867 -0.148,1.09467 v 8.616 h -3.66933 z"
     style="fill:#231f20;fill-opacity:1;fill-rule:nonzero;stroke:none;stroke-width:1.33333"
     id="path613" />
  <sodipodi:namedview
     id="namedview42"
     pagecolor="#505050"
     bordercolor="#eeeeee"
     borderopacity="1"
     inkscape:showpageshadow="0"
     inkscape:pageopacity="0"
     inkscape:pagecheckerboard="0"
     inkscape:deskcolor="#505050"
     showgrid="false"
     inkscape:zoom="1.7700001"
     inkscape:cx="32.203389"
     inkscape:cy="144.63276"
     inkscape:window-width="1080"
     inkscape:window-height="1894"
     inkscape:window-x="1920"
     inkscape:window-y="0"
     inkscape:window-maximized="1"
     inkscape:current-layer="svg2" />
  <defs
     id="defs6" />
  <path
     d="m 94.185199,16.269599 -2.461333,0.01467 0.024,6.208 c -0.02667,1.915999 -9.884,1.915999 -9.854667,0 l 0.01467,-12.317334 -2.282667,0.05333 0.0053,14.179999 c 0.012,2.682667 14.529333,2.602667 14.609333,0 z"
     style="fill:#222424;fill-opacity:1;fill-rule:evenodd;stroke:none;stroke-width:1.33333"
     id="path24"
     clip-path="none" />
  <path
     d="m 37.695734,10.656399 h 2.76 l -0.036,13.750666 h -2.729333 z"
     style="fill:#222424;fill-opacity:1;fill-rule:evenodd;stroke:none;stroke-width:1.33333"
     id="path28"
     clip-path="none" />
  <path
     d="m 33.308934,9.2358658 0.02667,2.2506662 c -6.998667,-0.0093 -12.429333,0.210667 -14.289333,4.405334 4.772,0.505333 9.258666,2.004 13.437333,3.956 1.797333,1.252 2.813333,4.559999 -2.513334,6.090666 L 12.575601,25.873199 C 11.230268,25.982532 9.1996013,23.883865 8.8702679,22.491865 h 2.0293331 c 0.546667,1.097334 1.342667,1.025334 2.085334,1.270667 h 15.923999 c 3.374667,-0.6 2.972,-1.993333 1.665333,-2.724 -4.053333,-1.524 -8.019999,-2.869333 -13.523999,-3.817333 -1.457334,-0.249333 -1.945334,-0.522667 -1.770667,-1.28 3.025333,-6.0173332 9.233333,-6.9826665 18.029333,-6.7053332"
     style="fill:#222424;fill-opacity:1;fill-rule:evenodd;stroke:none;stroke-width:1.33333"
     id="path32"
     clip-path="none" />
  <path
     d="m 91.642666,11.115999 h 2.58 v 2.476 h -2.58 z"
     style="fill:#222424;fill-opacity:1;fill-rule:evenodd;stroke:none;stroke-width:1.33333"
     id="path34"
     clip-path="none" />
  <path
     d="m 55.724267,23.640799 h 15.610666 c 5.741333,-0.470667 1.788,-7.656 -2.170666,-6.496 -5.382667,1.598667 -9.838667,3.549333 -13.44,6.496 M 50.8816,10.598133 53.466934,10.560799 53.4016,21.271466 c 6.261334,-4.432 12.833333,-6.549333 19.262667,-6.217333 3.250666,0.172 7.587999,9.354666 -1.738667,10.885333 H 46.364267 c -1.397333,3.364 -3.857333,5.667999 -7.372,6.933333 l -0.04933,-2.669333 c 3.077333,-1.141334 5.018667,-3.793334 5.989333,-7.725334 L 44.9016,16.284799 h 2.170666 l 0.01733,6.201333 H 50.8736 Z"
     style="fill:#222424;fill-opacity:1;fill-rule:evenodd;stroke:none;stroke-width:1.33333"
     id="path38"
     clip-path="none" />
  <path
     d="m 105.16707,17.871199 c 2.784,0 5.04667,1.04 5.04667,2.317333 0,1.262667 -2.26267,2.297334 -5.04667,2.297334 -2.77467,0 -5.04,-1.034667 -5.04,-2.297334 0,-1.277333 2.26533,-2.317333 5.04,-2.317333 m 31.87733,-1.581333 h -2.52533 v 6.189333 c 0,1.929333 -5.66667,1.929333 -5.66667,0.0067 v -6.196 h -2.86533 v 6.196 c 0,1.922666 -5.84933,1.922666 -5.84933,0 v -6.196 h -2.69734 v 6.196 c -0.11466,0.804 -1.912,2.077333 -4.348,1.969333 -0.0613,-2.937333 -0.508,-8.165333 -5.52933,-8.165333 -5.04267,0 -9.068,0 -9.741333,2.72 -0.490667,2.677333 0.969333,5.398666 5.629333,5.398666 2.552,0.218667 4.95467,0.032 7.24933,-0.449333 -0.47733,3.341333 -2.34266,5.32 -5.62,6.345333 l 0.0133,2.669333 c 3.67466,-1.321333 6.58,-3.385333 7.456,-6.437333 1.79733,0 3.656,-0.472 4.92533,-2.042666 h 2.66267 c 2.12133,1.538666 3.97066,1.445333 5.84933,-0.08533 h 2.57067 c 0.34133,0 0.148,1.081333 3.73466,1.004 4.61467,-0.07467 4.752,-2.777333 4.752,-2.926666 z"
     style="fill:#222424;fill-opacity:1;fill-rule:evenodd;stroke:none;stroke-width:1.33333"
     id="path42"
     clip-path="none" />
  <path
     d="m 136.33106,60.410265 0.032,-24.857333 L 20.007063,35.178266 C 12.112396,35.552932 9.5497298,38.119599 9.5497298,45.824932 v 38.317332 c 0,5.358667 2.3666662,8.893334 12.0546662,8.893334 h 87.623994 c 2.124,0 2.27467,4.537333 0,4.537333 H 9.5497298 V 123.29826 H 58.887062 v 6.86267 H 9.5497298 l 0.3466667,24.76933 126.4666635,0.15467 v -24.924 H 88.275061 v -6.86267 h 40.069329 c 4.92667,0 8.01867,-2.56933 8.01867,-7.924 V 76.162265 c 0,-7.598667 -2.58,-10.245333 -9.91067,-10.245333 H 38.101729 c -2.514666,0 -2.538666,-4.66 0.012,-4.66 h 98.249331 z"
     style="fill:#222424;fill-opacity:1;fill-rule:evenodd;stroke:none;stroke-width:1.33333"
     id="path46"
     clip-path="none" />
  <path
     d="m 10.346668,174.87119 c 1.185333,0.68267 2.962667,1.27467 4.829333,1.27467 2.337333,0 3.64,-1.09467 3.64,-2.72267 0,-1.50933 -1.006667,-2.4 -3.553333,-3.31467 -3.286667,-1.18533 -5.388,-2.932 -5.388,-5.80666 0,-3.25467 2.724,-5.74134 7.046667,-5.74134 2.162666,0 3.761333,0.472 4.797333,1.00534 l -0.890667,2.93333 c -0.709333,-0.384 -2.101333,-0.94933 -3.964,-0.94933 -2.312,0 -3.32,1.24266 -3.32,2.4 0,1.53733 1.157334,2.24666 3.822667,3.284 3.461333,1.30266 5.152,3.052 5.152,5.92133 0,3.19733 -2.430667,6.012 -7.582667,6.012 -2.101333,0 -4.290666,-0.624 -5.3866663,-1.27467 z"
     style="fill:#231f20;fill-opacity:1;fill-rule:nonzero;stroke:none;stroke-width:1.33333"
     id="path50"
     clip-path="none" />
  <path
     d="m 28.672267,171.646 c 0,2.78267 1.361333,4.88533 3.582667,4.88533 2.070666,0 3.522666,-2.04266 3.522666,-4.94266 0,-2.25067 -1.005333,-4.82534 -3.492,-4.82534 -2.578666,0 -3.613333,2.48534 -3.613333,4.88267 M 39.5376,171.49933 c 0,5.29867 -3.729333,7.668 -7.4,7.668 -4.085333,0 -7.225333,-2.81466 -7.225333,-7.432 0,-4.736 3.110667,-7.63866 7.46,-7.63866 4.292,0 7.165333,3.02 7.165333,7.40266"
     style="fill:#231f20;fill-opacity:1;fill-rule:nonzero;stroke:none;stroke-width:1.33333"
     id="path54"
     clip-path="none" />
  <path
     d="m 42.523734,168.71626 c 0,-1.66 -0.02933,-3.05067 -0.117333,-4.29467 h 3.196 l 0.176,2.16134 h 0.09067 c 0.624,-1.12534 2.190667,-2.48667 4.589333,-2.48667 2.517334,0 5.124,1.628 5.124,6.18933 v 8.556 h -3.641333 v -8.144 c 0,-2.07066 -0.774667,-3.64133 -2.754666,-3.64133 -1.454667,0 -2.458667,1.036 -2.842667,2.132 -0.118667,0.32667 -0.149333,0.772 -0.149333,1.184 v 8.46933 h -3.670667 z"
     style="fill:#231f20;fill-opacity:1;fill-rule:nonzero;stroke:none;stroke-width:1.33333"
     id="path58"
     clip-path="none" />
  <path
     d="m 67.096666,171.79306 c -2.576,-0.0573 -5.032,0.50533 -5.032,2.69467 0,1.42266 0.914667,2.07333 2.070667,2.07333 1.448,0 2.516,-0.94933 2.84,-1.984 0.09067,-0.26667 0.121333,-0.56267 0.121333,-0.8 z m 3.552,3.584 c 0,1.30133 0.05733,2.57467 0.206667,3.464 h -3.285334 l -0.236,-1.6 h -0.08933 c -0.888,1.12667 -2.398667,1.92533 -4.265333,1.92533 -2.901333,0 -4.530667,-2.10133 -4.530667,-4.29466 0,-3.64 3.229333,-5.47734 8.56,-5.44534 v -0.23866 c 0,-0.94667 -0.386667,-2.51467 -2.933333,-2.51467 -1.421334,0 -2.901334,0.44267 -3.878667,1.06667 l -0.712,-2.36934 c 1.069333,-0.652 2.933333,-1.27333 5.212,-1.27333 4.618667,0 5.952,2.92933 5.952,6.068 z"
     style="fill:#231f20;fill-opacity:1;fill-rule:nonzero;stroke:none;stroke-width:1.33333"
     id="path62"
     clip-path="none" />
  <path
     d="m 78.491199,160.72013 v 3.70133 h 3.468 v 2.72267 h -3.468 v 6.368 c 0,1.74667 0.473333,2.66533 1.866667,2.66533 0.68,0 1.005333,-0.0613 1.421333,-0.17866 l 0.05867,2.784 c -0.533334,0.20666 -1.48,0.384 -2.636,0.384 -1.330667,0 -2.457334,-0.47467 -3.136,-1.21467 -0.770667,-0.828 -1.128,-2.132 -1.128,-4.02667 v -6.78133 h -2.070667 v -2.72267 h 2.070667 v -2.664 z"
     style="fill:#231f20;fill-opacity:1;fill-rule:nonzero;stroke:none;stroke-width:1.33333"
     id="path66"
     clip-path="none" />
  <path
     d="m 84.707333,169.0692 c 0,-1.95333 -0.03067,-3.34533 -0.118667,-4.64667 h 3.166667 l 0.118667,2.75334 h 0.117333 c 0.713333,-2.044 2.401333,-3.07867 3.938666,-3.07867 0.356,0 0.562667,0.0293 0.86,0.088 v 3.436 c -0.297333,-0.0613 -0.622666,-0.12 -1.065333,-0.12 -1.748,0 -2.930666,1.12533 -3.258666,2.75333 -0.06,0.32667 -0.117334,0.71067 -0.117334,1.12534 v 7.46133 h -3.641333 z"
     style="fill:#231f20;fill-opacity:1;fill-rule:nonzero;stroke:none;stroke-width:1.33333"
     id="path70"
     clip-path="none" />
  <path
     d="m 102.6176,171.79306 c -2.576,-0.0573 -5.032,0.50533 -5.032,2.69467 0,1.42266 0.917333,2.07333 2.072,2.07333 1.44933,0 2.51733,-0.94933 2.84,-1.984 0.0907,-0.26667 0.12,-0.56267 0.12,-0.8 z m 3.552,3.584 c 0,1.30133 0.06,2.57467 0.20533,3.464 h -3.28266 l -0.23467,-1.6 h -0.0907 c -0.88933,1.12667 -2.4,1.92533 -4.263997,1.92533 -2.902666,0 -4.530666,-2.10133 -4.530666,-4.29466 0,-3.64 3.228,-5.47734 8.554663,-5.44534 v -0.23866 c 0,-0.94667 -0.38266,-2.51467 -2.930663,-2.51467 -1.418667,0 -2.9,0.44267 -3.877333,1.06667 l -0.712,-2.36934 c 1.066666,-0.652 2.931999,-1.27333 5.211996,-1.27333 4.61867,0 5.95067,2.92933 5.95067,6.068 z"
     style="fill:#231f20;fill-opacity:1;fill-rule:nonzero;stroke:none;stroke-width:1.33333"
     id="path74"
     clip-path="none" />
  <path
     d="m 120.6176,178.39466 c -0.77067,0.35733 -2.28267,0.772 -4.08533,0.772 -4.5,0 -7.43467,-2.90267 -7.43467,-7.37333 0,-4.32267 2.96267,-7.69734 8.02533,-7.69734 1.33467,0 2.692,0.29734 3.52267,0.68134 l -0.65067,2.724 c -0.592,-0.26667 -1.45333,-0.56267 -2.75466,-0.56267 -2.784,0 -4.44,2.04 -4.412,4.67733 0,2.96134 1.92666,4.648 4.412,4.648 1.27333,0 2.16266,-0.26533 2.872,-0.56266 z"
     style="fill:#231f20;fill-opacity:1;fill-rule:nonzero;stroke:none;stroke-width:1.33333"
     id="path78"
     clip-path="none" />
</svg>
