<?xml version="1.0" encoding="UTF-8" standalone="no"?>
<!-- Generator: Adobe Illustrator 17.1.0, SVG Export Plug-In . SVG Version: 6.00 Build 0)  -->

<svg
   version="1.1"
   id="Layer_1"
   x="0px"
   y="0px"
   viewBox="7.5 1.9 3267.9136 825.5781"
   enable-background="new 7.5 1.9 136 34.2"
   xml:space="preserve"
   sodipodi:docname="lvmh-logo.svg"
   width="3267.9136"
   height="825.57812"
   inkscape:export-filename="G:\Users\suitedoalex\sites\lvmh-logo-0.png"
   inkscape:export-xdpi="96"
   inkscape:export-ydpi="96"
   inkscape:version="1.2.2 (1:1.2.2+202212051552+b0a8486541)"
   xmlns:inkscape="http://www.inkscape.org/namespaces/inkscape"
   xmlns:sodipodi="http://sodipodi.sourceforge.net/DTD/sodipodi-0.dtd"
   xmlns="http://www.w3.org/2000/svg"
   xmlns:svg="http://www.w3.org/2000/svg"
   xmlns:rdf="http://www.w3.org/1999/02/22-rdf-syntax-ns#"
   xmlns:cc="http://creativecommons.org/ns#"
   xmlns:dc="http://purl.org/dc/elements/1.1/"><metadata
     id="metadata15"><rdf:RDF><cc:Work
         rdf:about=""><dc:format>image/svg+xml</dc:format><dc:type
           rdf:resource="http://purl.org/dc/dcmitype/StillImage" /></cc:Work></rdf:RDF></metadata><defs
     id="defs13" /><sodipodi:namedview
     pagecolor="#ffffff"
     bordercolor="#666666"
     borderopacity="1"
     objecttolerance="10"
     gridtolerance="10"
     guidetolerance="10"
     inkscape:pageopacity="0"
     inkscape:pageshadow="2"
     inkscape:window-width="1920"
     inkscape:window-height="1029"
     id="namedview11"
     showgrid="false"
     inkscape:zoom="0.21707138"
     inkscape:cx="2630.4711"
     inkscape:cy="140.50678"
     inkscape:window-x="0"
     inkscape:window-y="788"
     inkscape:window-maximized="1"
     inkscape:current-layer="Layer_1"
     inkscape:showpageshadow="0"
     inkscape:pagecheckerboard="0"
     inkscape:deskcolor="#d1d1d1" /><path
     d="m 668.45398,591.5987 19.6566,4.9141 -68.7982,208.8516 H 12.41416 v -22.1137 h 29.48493 c 34.39909,0 51.59864,-9.8282 66.3411,-31.942 7.37125,-12.2854 12.28539,-41.7704 12.28539,-85.9977 V 141.9535 c 0,-49.1416 -4.91414,-81.0836 -17.19954,-93.3691 C 88.58356,31.3849 66.46986,21.5567 34.52785,21.5567 H 7.5 V 1.9 h 351.36212 v 19.6567 c -41.77031,0 -68.79817,2.4571 -85.99771,12.2854 -17.19954,7.3712 -27.02786,19.6566 -34.39909,31.942 -7.37123,12.2854 -9.82831,41.7703 -9.82831,88.4548 v 515.9863 c 0,31.942 2.45708,56.5128 9.82831,68.7982 4.91416,7.3712 12.28539,14.7424 22.1137,19.6566 9.82831,4.9142 49.14156,4.9142 100.74019,4.9142 h 49.14154 c 61.42695,0 103.19728,-4.9142 127.76805,-14.7425 24.57078,-9.8283 46.68448,-24.5707 68.79818,-49.1416 22.1137,-24.5707 41.7703,-56.5127 61.427,-108.1113"
     id="path2"
     style="fill:#000000;stroke-width:24.5708"
     inkscape:connector-curvature="0"
     inkscape:export-filename="G:\Users\suitedoalex\sites\lvmh-logo-4.png"
     inkscape:export-xdpi="11.750617"
     inkscape:export-ydpi="11.750617" /><path
     d="m 1378.5495,1.9 v 22.1138 c -27.0279,4.914 -39.3133,14.7424 -54.0558,27.0277 -19.6566,19.6568 -39.3133,49.1415 -54.0557,88.4549 L 992.78818,827.4781 h -24.5708 L 673.36808,132.1251 C 658.62558,95.269 646.34018,75.6124 641.42608,65.784 631.59778,53.4986 619.31238,43.6703 604.56988,36.2991 589.82748,28.9278 579.99912,24.0137 555.42834,24.0137 V 1.9 h 304.67764 v 22.1137 c -36.8561,2.4571 -49.1415,9.8283 -58.9698,19.6566 -9.8284,9.8283 -17.1996,19.6567 -17.1996,34.3991 0,19.6566 9.8284,51.5986 27.0279,93.3689 l 201.48032,469.3019 189.195,-464.3877 c 17.1996,-46.6845 27.0279,-78.6265 27.0279,-95.826 0,-12.2854 -4.9142,-22.1138 -17.1995,-31.9421 -12.2855,-9.8282 -34.3991,-17.1995 -61.427,-22.1135 -2.4571,0 -4.9142,0 -9.8283,-2.4571 V 1.9 Z"
     id="path4"
     style="fill:#000000;stroke-width:24.5708"
     inkscape:connector-curvature="0"
     inkscape:export-filename="G:\Users\suitedoalex\sites\lvmh-logo-4.png"
     inkscape:export-xdpi="11.750617"
     inkscape:export-ydpi="11.750617" /><path
     d="M 1877.3362,805.3644 1575.1157,137.0392 V 667.768 c 0,49.1416 4.9142,78.6265 17.1995,90.9119 14.7426,17.1996 31.9421,24.5708 63.8841,24.5708 h 29.4849 v 22.1137 h -282.5639 v -22.1137 h 46.6845 c 34.3991,0 58.9698,-9.8282 71.2552,-29.485 9.8283,-12.2853 12.2854,-41.7703 12.2854,-85.9976 V 139.4964 c 0,-34.3991 -4.9141,-61.427 -12.2854,-76.1694 -4.9143,-12.2854 -14.7426,-19.6566 -29.4849,-29.4849 -14.7425,-7.3712 -34.3992,-12.2854 -66.3412,-12.2854 V 1.9 h 208.8516 L 1921.5637,630.912 2206.5847,1.9 h 216.2227 v 22.1138 h -27.0277 c -34.3991,0 -54.0557,9.8282 -66.3411,29.4848 -9.8283,12.2854 -14.7424,41.7704 -14.7424,85.9977 V 667.768 c 0,49.1416 4.9141,78.6265 17.1995,90.9119 14.7424,17.1996 34.3991,24.5708 66.3411,24.5708 h 22.1137 v 22.1137 h -324.3343 v -22.1137 h 24.5708 c 34.399,0 58.9699,-9.8282 71.2552,-29.485 9.8283,-12.2853 12.2854,-41.7703 12.2854,-85.9976 V 129.668 l -307.1347,675.6964 z"
     id="path6"
     style="fill:#000000;stroke-width:24.5708"
     inkscape:connector-curvature="0"
     inkscape:export-filename="G:\Users\suitedoalex\sites\lvmh-logo-4.png"
     inkscape:export-xdpi="11.750617"
     inkscape:export-ydpi="11.750617" /><path
     d="m 2683.2577,370.4617 h 371.0188 V 141.9534 c 0,-41.7704 -2.457,-68.7982 -7.3712,-81.0836 -4.9142,-9.8283 -12.2854,-17.1995 -24.5709,-24.5707 -17.1995,-9.8282 -29.4848,-14.7425 -49.1414,-14.7425 h -27.028 V 1.9 h 326.7915 v 22.1137 h -27.0279 c -19.6566,0 -31.942,4.9141 -46.6845,14.7424 -12.2853,7.3713 -22.1137,14.7425 -24.5709,29.485 -4.9141,12.2854 -7.3711,39.3133 -7.3711,78.6264 v 520.9006 c 0,41.7703 2.457,66.3411 7.3711,81.0836 4.9143,9.8282 12.2856,17.1995 24.5709,24.5708 17.1995,9.8282 31.9421,14.7424 49.1416,14.7424 h 27.0279 v 22.1138 h -326.7914 v -22.1138 h 27.0279 c 31.942,0 51.5985,-9.8283 66.341,-29.4849 9.8284,-12.2854 14.7425,-41.7704 14.7425,-90.9119 V 414.6892 H 2683.2577 V 665.311 c 0,41.7704 2.4572,66.3411 7.3713,81.0836 4.9141,9.8282 12.2854,17.1995 24.5707,24.5708 17.1995,9.8282 29.4851,14.7425 49.1416,14.7425 h 29.485 v 22.1137 H 2471.949 v -22.1137 h 27.0279 c 31.942,0 46.6844,-9.8283 63.884,-29.485 9.8283,-12.2854 14.7425,-41.7703 14.7425,-90.9119 V 141.9535 c 0,-41.7705 -2.4571,-68.7982 -7.3711,-81.0836 -4.9143,-9.8283 -12.2856,-17.1995 -24.571,-24.5707 -17.1995,-9.8283 -29.4848,-14.7425 -49.1415,-14.7425 h -27.0279 V 1.9 h 324.3344 v 22.1138 h -29.485 c -19.6565,0 -31.9421,4.914 -46.6844,14.7424 -12.2855,7.3712 -19.6567,14.7425 -24.5709,29.485 -4.9142,12.2854 -7.3711,39.3132 -7.3711,78.6263 z"
     id="path8"
     style="fill:#000000;stroke-width:24.5708"
     inkscape:connector-curvature="0"
     inkscape:export-filename="G:\Users\suitedoalex\sites\lvmh-logo-4.png"
     inkscape:export-xdpi="11.750617"
     inkscape:export-ydpi="11.750617" /></svg>
