<?xml version="1.0" encoding="UTF-8" standalone="no"?>
<!-- Created with Inkscape (http://www.inkscape.org/) -->

<svg
   width="8.7822294mm"
   height="13.014502mm"
   viewBox="0 0 8.7822295 13.0145"
   version="1.1"
   id="svg5"
   inkscape:version="1.3 (1:1.3+202307231459+0e150ed6c4)"
   sodipodi:docname="cursor-mint.svg"
   xmlns:inkscape="http://www.inkscape.org/namespaces/inkscape"
   xmlns:sodipodi="http://sodipodi.sourceforge.net/DTD/sodipodi-0.dtd"
   xmlns="http://www.w3.org/2000/svg"
   xmlns:svg="http://www.w3.org/2000/svg">
  <sodipodi:namedview
     id="namedview7"
     pagecolor="#505050"
     bordercolor="#eeeeee"
     borderopacity="1"
     inkscape:pageshadow="0"
     inkscape:pageopacity="0"
     inkscape:pagecheckerboard="0"
     inkscape:document-units="mm"
     showgrid="false"
     inkscape:zoom="7.5893748"
     inkscape:cx="40.385408"
     inkscape:cy="21.740921"
     inkscape:current-layer="layer1"
     inkscape:showpageshadow="0"
     inkscape:deskcolor="#d1d1d1"
     inkscape:window-width="1920"
     inkscape:window-height="1029"
     inkscape:window-x="0"
     inkscape:window-y="865"
     inkscape:window-maximized="1" />
  <defs
     id="defs2" />
  <g
     inkscape:label="Layer 1"
     inkscape:groupmode="layer"
     id="layer1"
     transform="translate(-94.114191,-94.966404)">
    <path
       id="path1"
       style="fill:#000000;stroke:none;stroke-width:0.499999;stroke-linecap:round;stroke-linejoin:round;stroke-dasharray:0.499999, 3"
       d="m 94.16571,94.966444 c 0.05226,0.276248 0.09688,1.031243 0.445968,1.370459 -0.03901,0.06494 -0.526838,-0.330289 -0.496094,-0.260966 0.395666,0.892498 0.594351,2.86059 2.084628,4.170293 0.156129,0.1372 -1.21739,-0.835849 -1.158586,-0.646994 0.301564,1.361024 0.935924,2.618514 2.135787,3.798214 0.04363,0.0965 -0.54616,-0.0128 -0.59738,0 -0.219748,0.0548 1.022965,0.61123 1.079521,1.16169 0.01151,0.11058 -0.706388,-0.0461 -0.641821,0.0444 0.350488,0.49108 1.391884,0.66426 2.232938,0.82889 0.678943,0.006 0.858429,0.33015 1.058849,0.63976 0.0245,0.0633 0.05,0.13018 0.0837,0.20774 0.10067,0.23129 0.18676,0.58206 0.21239,0.83147 0.11356,1.10493 0.79366,0.86759 0.76791,0.80357 -0.19423,-0.48277 -0.34329,-0.53075 -0.39584,-1.03973 -0.18723,-0.67361 -0.30855,-1.17394 -0.1726,-1.60404 0.156,-0.4934 0.23979,-0.6698 0.33745,-1.08934 0.20818,-0.82021 0.47732,-1.80298 0.18913,-2.31769 -0.0543,-0.0969 -0.16725,0.68838 -0.26251,0.63097 -0.47379,-0.28591 -0.49858,-1.71693 -0.64183,-1.5415 -0.01,0.0123 -0.0861,0.22879 -0.17001,0.47594 -0.675206,-1.461516 -1.064442,-2.977164 -2.268597,-3.703138 -0.145988,-0.133439 0.184199,1.627569 0.112655,1.432471 -0.76177,-2.077626 -2.338182,-3.081712 -2.908867,-3.767212 -0.04851,-0.05827 0.0655,0.59328 -0.0098,0.600997 -0.225892,-0.601052 -0.789109,-0.861633 -1.016993,-1.026294 z m 4.820002,7.048936 c 0.218379,0.488 0.976764,2.38039 1.265858,3.0455 0.0146,0.0335 0.0787,0.29322 0.0336,0.28422 -0.1935,-0.0388 -1.303222,-2.99884 -2.738767,-5.05185 -0.642189,-0.789141 -1.540267,-2.27114 -2.032156,-3.169558 0,0 3.253106,4.403688 3.471485,4.891688 z"
       sodipodi:nodetypes="cccccccccccccccccccccccscczccccz" />
    <path
       style="fill:#000000;stroke:none;stroke-width:0.499999;stroke-linecap:round;stroke-linejoin:round;stroke-dasharray:0.499999, 3"
       d="m 101.22822,107.15623 c 0,0 -0.15645,-0.50472 0.42208,-1.06944 0.57852,-0.56472 1.24612,-0.95813 1.24612,-0.95813 0,0 -0.29247,1.38949 -0.55766,1.62609 -0.2652,0.23661 -1.15088,0.48448 -1.15088,0.48448"
       id="path2" />
  </g>
</svg>
