<?xml version="1.0" encoding="UTF-8" standalone="no"?>
<!-- Created with Inkscape (http://www.inkscape.org/) -->

<svg
   width="95.325264mm"
   height="95.325264mm"
   viewBox="0 0 95.325264 95.325264"
   version="1.1"
   id="svg5"
   inkscape:version="1.2.2 (1:1.2.2+202305151914+b0a8486541)"
   sodipodi:docname="logo.svg"
   inkscape:export-filename="logo.png"
   inkscape:export-xdpi="213.1649"
   inkscape:export-ydpi="213.1649"
   xml:space="preserve"
   xmlns:inkscape="http://www.inkscape.org/namespaces/inkscape"
   xmlns:sodipodi="http://sodipodi.sourceforge.net/DTD/sodipodi-0.dtd"
   xmlns="http://www.w3.org/2000/svg"
   xmlns:svg="http://www.w3.org/2000/svg"><sodipodi:namedview
     id="namedview7"
     pagecolor="#505050"
     bordercolor="#eeeeee"
     borderopacity="1"
     inkscape:showpageshadow="0"
     inkscape:pageopacity="0"
     inkscape:pagecheckerboard="0"
     inkscape:deskcolor="#505050"
     inkscape:document-units="mm"
     showgrid="false"
     inkscape:zoom="0.5946522"
     inkscape:cx="443.95699"
     inkscape:cy="659.20887"
     inkscape:window-width="1080"
     inkscape:window-height="1894"
     inkscape:window-x="1920"
     inkscape:window-y="0"
     inkscape:window-maximized="1"
     inkscape:current-layer="g322" /><defs
     id="defs2" /><g
     inkscape:label="Layer 1"
     inkscape:groupmode="layer"
     id="layer1"
     transform="translate(676.44397,-24.302523)"><rect
       style="fill:#fffacd;stroke-width:0.2;stroke-linejoin:round;paint-order:stroke fill markers;fill-opacity:1"
       id="rect460"
       width="95.325264"
       height="95.325264"
       x="-676.44397"
       y="24.302523" /><g
       aria-label="\  |  / - été - /  |  \"
       id="text236"
       style="font-weight:600;font-size:13.9714px;line-height:1.7;font-family:'Work Sans';-inkscape-font-specification:'Work Sans Semi-Bold';font-variant-ligatures:discretionary-ligatures;stroke-width:0.2;stroke-linejoin:round;paint-order:stroke fill markers"><path
         d="m -657.7065,42.494005 0.0409,0.197837 0.007,0.01364 4.35925,10.287535 0.11597,0.170549 0.17737,0.109152 0.21148,0.04093 0.21148,-0.04093 0.17737,-0.109152 0.11598,-0.170549 0.0409,-0.191015 -0.0409,-0.197837 -0.007,-0.01364 -4.35925,-10.280713 v -0.01364 l -0.11597,-0.163728 -0.17737,-0.115973 -0.21148,-0.03411 -0.21148,0.03411 -0.17737,0.115973 -0.11598,0.163728 z"
         style="font-weight:bold;font-family:'ete mono Mono';-inkscape-font-specification:'ete mono Mono Bold'"
         id="path462" /><path
         d="m -629.32709,52.802006 0.0409,0.191015 0.11597,0.170549 0.17738,0.109152 0.21148,0.04093 0.21148,-0.04093 0.17737,-0.109152 0.11597,-0.170549 0.0409,-0.191015 V 42.494005 l -0.0409,-0.197837 -0.11597,-0.163728 -0.17737,-0.115973 -0.21148,-0.03411 -0.21148,0.03411 -0.17738,0.115973 -0.11597,0.163728 -0.0409,0.197837 z"
         style="font-weight:bold;font-family:'ete mono Mono';-inkscape-font-specification:'ete mono Mono Bold'"
         id="path464" /><path
         d="m -605.31375,52.802006 0.0409,0.191015 0.11597,0.170549 0.17737,0.109152 0.21148,0.04093 0.21148,-0.04093 0.17737,-0.109152 0.11598,-0.170549 4.35924,-10.287535 0.007,-0.01364 0.0409,-0.197837 -0.0409,-0.197837 -0.11597,-0.163728 -0.17737,-0.115973 -0.21149,-0.03411 -0.21148,0.03411 -0.17737,0.115973 -0.11597,0.163728 v 0.01364 l -4.35924,10.280713 -0.007,0.01364 z"
         style="font-weight:bold;font-family:'ete mono Mono';-inkscape-font-specification:'ete mono Mono Bold'"
         id="path466" /><path
         d="m -657.7065,70.931622 0.0409,0.197837 0.11598,0.170549 0.17737,0.109152 0.21148,0.04093 h 4.36606 l 0.21148,-0.04093 0.17737,-0.109152 0.11598,-0.170549 0.0409,-0.197837 -0.0409,-0.197837 -0.11598,-0.163728 -0.17737,-0.109151 -0.21148,-0.04093 h -4.36606 l -0.21148,0.04093 -0.17737,0.109151 -0.11598,0.163728 z"
         style="font-weight:bold;font-family:'ete mono Mono';-inkscape-font-specification:'ete mono Mono Bold'"
         id="path468" /><path
         d="m -640.24225,74.021976 0.0409,0.197837 0.11598,0.170549 1.09151,1.030118 0.17737,0.109152 0.21148,0.04093 h 2.18304 l 0.21148,-0.04093 0.17737,-0.109152 1.09151,-1.030118 0.11598,-0.170549 0.0409,-0.197837 -0.0409,-0.191016 -0.11598,-0.170549 -0.17737,-0.109152 -0.21148,-0.04093 -0.21148,0.04093 -0.17737,0.109152 -0.93461,0.880034 h -1.71914 l -0.7777,-0.729951 V 72.48021 h 3.8203 l 0.21148,-0.04093 0.17737,-0.109152 0.11598,-0.170549 0.0409,-0.197837 v -2.060236 l -0.0409,-0.197837 -0.11598,-0.163728 -1.09151,-1.030117 -0.17737,-0.115974 -0.21148,-0.03411 h -2.18304 l -0.21148,0.03411 -0.17737,0.115974 -1.09151,1.030117 -0.11598,0.163728 -0.0409,0.197837 z m 1.09152,-2.571884 v -1.330285 l 0.7777,-0.729951 h 1.71914 l 0.7777,0.729951 v 1.330285 z m 1.09151,-3.608824 0.0409,0.197837 0.11598,0.17055 0.17737,0.109151 0.21148,0.04093 0.21148,-0.04093 0.17737,-0.109151 1.09152,-1.030118 0.11597,-0.170549 0.0409,-0.197838 -0.0409,-0.197837 -0.11597,-0.163727 -0.17737,-0.115974 -0.21148,-0.03411 -0.21149,0.03411 -0.17737,0.115974 -1.09151,1.030118 -0.11598,0.163727 z"
         style="font-weight:bold;font-family:'ete mono Mono';-inkscape-font-specification:'ete mono Mono Bold'"
         id="path470" /><path
         d="m -631.51012,68.871386 0.0409,0.197837 0.11597,0.17055 0.17737,0.109151 0.21149,0.04093 h 1.63727 v 5.662237 l 0.0409,0.197838 0.11597,0.170549 0.17738,0.109152 0.21148,0.04093 h 2.18303 l 0.21148,-0.04093 0.17737,-0.109152 0.11597,-0.170549 0.0409,-0.197838 -0.0409,-0.191015 -0.11597,-0.170549 -0.17737,-0.109152 -0.21148,-0.04093 h -1.63728 v -5.150589 h 1.63728 l 0.21148,-0.04093 0.17737,-0.109151 0.11597,-0.17055 0.0409,-0.197837 -0.0409,-0.197837 -0.11597,-0.163727 -0.17737,-0.115974 -0.21148,-0.03411 h -1.63728 V 66.81115 l -0.0409,-0.197837 -0.11597,-0.163727 -0.17737,-0.115974 -0.21148,-0.03411 -0.21148,0.03411 -0.17738,0.115974 -0.11597,0.163727 -0.0409,0.197837 v 1.548588 h -1.63727 l -0.21149,0.03411 -0.17737,0.115974 -0.11597,0.163727 z"
         style="font-weight:bold;font-family:'ete mono Mono';-inkscape-font-specification:'ete mono Mono Bold'"
         id="path472" /><path
         d="m -622.778,74.021976 0.0409,0.197837 0.11598,0.170549 1.09151,1.030118 0.17737,0.109152 0.21149,0.04093 h 2.18303 l 0.21148,-0.04093 0.17737,-0.109152 1.09151,-1.030118 0.11598,-0.170549 0.0409,-0.197837 -0.0409,-0.191016 -0.11598,-0.170549 -0.17737,-0.109152 -0.21148,-0.04093 -0.21148,0.04093 -0.17737,0.109152 -0.93461,0.880034 h -1.71914 l -0.7777,-0.729951 V 72.48021 h 3.8203 l 0.21148,-0.04093 0.17737,-0.109152 0.11598,-0.170549 0.0409,-0.197837 v -2.060236 l -0.0409,-0.197837 -0.11598,-0.163728 -1.09151,-1.030117 -0.17737,-0.115974 -0.21148,-0.03411 h -2.18303 l -0.21149,0.03411 -0.17737,0.115974 -1.09151,1.030117 -0.11598,0.163728 -0.0409,0.197837 z m 1.09152,-2.571884 v -1.330285 l 0.7777,-0.729951 h 1.71914 l 0.7777,0.729951 v 1.330285 z m 1.09151,-3.608824 0.0409,0.197837 0.11598,0.17055 0.17737,0.109151 0.21148,0.04093 0.21148,-0.04093 0.17737,-0.109151 1.09152,-1.030118 0.11597,-0.170549 0.0409,-0.197838 -0.0409,-0.197837 -0.11597,-0.163727 -0.17737,-0.115974 -0.21148,-0.03411 -0.21148,0.03411 -0.17738,0.115974 -1.09151,1.030118 -0.11598,0.163727 z"
         style="font-weight:bold;font-family:'ete mono Mono';-inkscape-font-specification:'ete mono Mono Bold'"
         id="path474" /><path
         d="m -605.31375,70.931622 0.0409,0.197837 0.11597,0.170549 0.17737,0.109152 0.21148,0.04093 h 4.36606 l 0.21149,-0.04093 0.17737,-0.109152 0.11597,-0.170549 0.0409,-0.197837 -0.0409,-0.197837 -0.11597,-0.163728 -0.17737,-0.109151 -0.21149,-0.04093 h -4.36606 l -0.21148,0.04093 -0.17737,0.109151 -0.11597,0.163728 z"
         style="font-weight:bold;font-family:'ete mono Mono';-inkscape-font-specification:'ete mono Mono Bold'"
         id="path476" /><path
         d="m -657.7065,101.4363 0.0409,0.19101 0.11598,0.17055 0.17737,0.10915 0.21148,0.0409 0.21148,-0.0409 0.17737,-0.10915 0.11597,-0.17055 4.35925,-10.287533 0.007,-0.01364 0.0409,-0.197837 -0.0409,-0.197837 -0.11598,-0.163728 -0.17737,-0.115973 -0.21148,-0.03411 -0.21148,0.03411 -0.17737,0.115973 -0.11597,0.163728 v 0.01364 l -4.35925,10.280718 -0.007,0.0136 z"
         style="font-weight:bold;font-family:'ete mono Mono';-inkscape-font-specification:'ete mono Mono Bold'"
         id="path478" /><path
         d="m -629.32709,101.4363 0.0409,0.19101 0.11597,0.17055 0.17738,0.10915 0.21148,0.0409 0.21148,-0.0409 0.17737,-0.10915 0.11597,-0.17055 0.0409,-0.19101 V 91.128296 l -0.0409,-0.197837 -0.11597,-0.163728 -0.17737,-0.115973 -0.21148,-0.03411 -0.21148,0.03411 -0.17738,0.115973 -0.11597,0.163728 -0.0409,0.197837 z"
         style="font-weight:bold;font-family:'ete mono Mono';-inkscape-font-specification:'ete mono Mono Bold'"
         id="path480" /><path
         d="m -605.31375,91.128296 0.0409,0.197837 0.007,0.01364 4.35924,10.287533 0.11597,0.17055 0.17737,0.10915 0.21148,0.0409 0.21149,-0.0409 0.17737,-0.10915 0.11597,-0.17055 0.0409,-0.19101 -0.0409,-0.19784 -0.007,-0.0136 -4.35924,-10.280718 v -0.01364 l -0.11598,-0.163728 -0.17737,-0.115973 -0.21148,-0.03411 -0.21148,0.03411 -0.17737,0.115973 -0.11597,0.163728 z"
         style="font-weight:bold;font-family:'ete mono Mono';-inkscape-font-specification:'ete mono Mono Bold'"
         id="path482" /></g><g
       aria-label="\  |  / - été - /  |  \"
       id="g322"
       style="font-weight:600;font-size:13.9714px;line-height:1.7;font-family:'Work Sans';-inkscape-font-specification:'Work Sans Semi-Bold';font-variant-ligatures:discretionary-ligatures;stroke-width:0.2;stroke-linejoin:round;paint-order:stroke fill markers"
       transform="translate(0,142.13333)"><circle
         style="fill:#fffacd;fill-opacity:1;stroke-width:3.2;stroke-linecap:square;paint-order:stroke fill markers;stop-color:#000000"
         id="path376"
         cx="-620.57843"
         cy="99.251099"
         r="47.633633" /><path
         d="m -641.14086,121.09085 0.3082,1.49079 0.87396,1.28516 8.22501,7.76239 1.33656,0.8225 1.59359,0.30843 h 16.45016 l 1.5936,-0.30843 1.33656,-0.8225 8.225,-7.76239 0.87396,-1.28516 0.3082,-1.49079 -0.3082,-1.43939 -0.87396,-1.28516 -1.33656,-0.82251 -1.59359,-0.30843 -1.5936,0.30843 -1.33656,0.82251 -7.04269,6.63144 h -12.95447 l -5.86031,-5.5005 v -10.02427 h 28.78763 l 1.59359,-0.30843 1.33656,-0.82251 0.87396,-1.28516 0.3082,-1.49079 V 90.041301 l -0.3082,-1.490788 -0.87396,-1.233762 -8.225,-7.762382 -1.33656,-0.873915 -1.5936,-0.257034 h -16.45016 l -1.59359,0.257034 -1.33656,0.873915 -8.22501,7.762382 -0.87396,1.233762 -0.3082,1.490788 z m 8.22508,-19.38027 V 91.686295 l 5.86031,-5.5005 h 12.95447 l 5.86031,5.5005 v 10.024285 z m 8.22501,-27.194073 0.3082,1.490789 0.87396,1.285168 1.33656,0.822501 1.59359,0.308425 1.5936,-0.308425 1.33656,-0.822501 8.22508,-7.762389 0.87388,-1.285161 0.3082,-1.490796 -0.3082,-1.490789 -0.87388,-1.233754 -1.33656,-0.873915 -1.5936,-0.257034 -1.59367,0.257034 -1.33656,0.873915 -8.225,7.762389 -0.87396,1.233755 z"
         style="font-weight:bold;font-family:'ete mono Mono';-inkscape-font-specification:'ete mono Mono Bold';stroke-width:0.2;fill:#000000"
         id="path308" /></g></g></svg>
